{
	"spider": "./JAR/pg01.jar",
	"wallpaper": "http://maoyingshi.cc/api.php",

	"sites":[

{"key": "lf_js_search","name": "主༒页","type": 3,"searchable": 0,"changeable": 0,"quickSearch": 0,"api": "https://mirror.ghproxy.com/https://raw.githubusercontent.com/WoKee/testFile/main/lf_search3_domestic_min.js"},
{"key": "豆瓣","name": "豆༒瓣","type": 3,"api": "csp_Douban","searchable": 0,"changeable": 1,"ext": "https://gitlab.com/dk6633963/tv/-/raw/main/json/douban.json"},
{"key": "配置中心","name": "OK配置","type": 3,"api": "csp_Config","searchable": 0,"changeable": 0,"jar": "https://gitee.com/okjack/okk/raw/master/okjpg.txt","style": {"type": "rect","ratio": 1}},
{"key": "网盘配置","name": "PG配置","type": 3,"api": "csp_Config","searchable": 0,"changeable": 0,"ext": "./json/tokenm.json"},
{"key":"csp_WoGG","name":"玩偶哥哥","type":3,"api":"csp_WoGG","searchable":1,"quickSearch":1,"filterable":1,"changeable":0,"ext": "https://raw.githubusercontent.com/dk393722/tv/main/token.txt+4k|auto|fhd$$$https://www.wogg.xyz/$$$弹"},
{"key": "玩偶表哥弹幕","name": "玩偶弟弟","type": 3,"api": "csp_Wobg","quickSearch": 1,"changeable": 1,"filterable": 1,"jar": "https://gitee.com/okjack/okk/raw/master/okjpg.txt","ext": {"token": "file://TV/ali_token.txt","cookie": "file://TV/quark_cookie.txt","danmu": true}},
{"key": "Wogg","name": "玩偶表哥","type": 3,"api": "csp_Wogg","quickSearch": 1,"changeable": 1,"filterable": 1,"timeout": 30,"ext": "./json/tokenm.json$$$https://wogg.link/$$$null$$$1$$$./lib/wogg.json"},
{"key": "Wobg","name": "玩偶表弟","type": 3,"api": "csp_Wobg","quickSearch": 1,"changeable": 1,"filterable": 1,"timeout": 30,"ext": "./json/tokenm.json$$$https://wobge.run.goorm.io$$$null$$$1$$$./lib/wogg.json"},
{"key": "云盘4k弹幕版","name": "云盘4K","type": 3,"api": "csp_Yunpan4k","searchable": 1,"filterable": 0,"changeable": 1,"jar": "https://gitee.com/okjack/okk/raw/master/okjpg.txt","ext": {"token": "file://TV/ali_token.txt","danmu": true}},
{"key": "我哥哥弹幕","name": "Wo哥哥","type": 3,"api": "csp_Wogg","quickSearch": 1,"changeable": 1,"filterable": 1,"jar": "https://gitee.com/okjack/okk/raw/master/okjpg.txt","ext": {"token": "file://TV/ali_token.txt","cookie": "file://TV/quark_cookie.txt","site": "http://ttkx.live:3328","danmu": true},"timeout": 25},
{"key": "土豆网盘弹幕","name": "土豆盘","type": 3,"api": "csp_Wobg","quickSearch": 1,"changeable": 1,"filterable": 1,"jar": "https://gitee.com/okjack/okk/raw/master/okjpg.txt","ext": {"token": "file://TV/ali_token.txt","cookie": "file://TV/quark_cookie.txt","site": "https://tudou.lvdoui.top/","danmu": true},"timeout": 25},
{"key": "纸条弹幕版","name": "纸条ali","type": 3,"api": "csp_XiaoZhiTiao","searchable": 1,"filterable": 1,"changeable": 1,"jar": "https://gitee.com/okjack/okk/raw/master/okjpg.txt","ext": {"token": "file://TV/ali_token.txt","danmu": true}},
{"key":"YiSo","name":"易搜","type":3,"api":"csp_YiSo","searchable":1,"quickSearch":1,"filterable":0,"changeable":0,"ext": "https://raw.githubusercontent.com/dk393722/tv/main/token.txt+4k|auto|fhd"},
{"key":"PanSou","name":"盘搜","type":3,"api":"csp_PanSou","searchable":1,"quickSearch":1,"filterable":0,"changeable":0,"ext": "https://raw.githubusercontent.com/dk393722/tv/main/token.txt+4k|auto|fhd"},
{"key":"UpYun","name":"UP云搜","type":3,"api":"csp_UpYun","searchable":1,"quickSearch":1,"filterable":0,"changeable":0,"ext": "https://raw.githubusercontent.com/dk393722/tv/main/token.txt+4k|auto|fhd"},
{"key":"PanSearch","name":"盘搜索","type":3,"api":"csp_PanSearch","searchable":1,"quickSearch":1,"filterable":0,"changeable":0,"ext": "https://raw.githubusercontent.com/dk393722/tv/main/token.txt+4k|auto|fhd"},
{"key": "七夜弹幕版","name": "七夜ali","type": 3,"api": "csp_Dovx","searchable": 1,"filterable": 0,"changeable": 1,"jar": "https://gitee.com/okjack/okk/raw/master/okjpg.txt","ext": {"token": "file://TV/ali_token.txt","danmu": true}},
{"key":"Zhaozy","name":"找资源","type":3,"api":"csp_Zhaozy","searchable":1,"quickSearch":1,"filterable":0,"changeable":0,"ext": "https://raw.githubusercontent.com/dk393722/tv/main/token.txt+4k|auto|fhd$$$lmok37266@bazatek.com$$$Yoursmile"},
{"key":"push_agent","name":"推送","type":3,"api":"csp_Push","searchable":0,"quickSearch":0,"filterable":0,"ext": "https://raw.githubusercontent.com/dk393722/tv/main/token.txt+4k|auto|fhd"},
{"key":"csp_Wobg土豆网盘弹幕","name":"土豆","type":3,"api":"csp_Wobg","searchable":1,"quickSearch":1,"changeable":0,"ext":"https://gitlab.com/dk6633963/tv/-/raw/main/token.txt?ref_type=heads+4k|auto|fhd$$$https://ali.lvdoui.top$$$1$$$./json/wogg.json", "timeout":30},
{"key":"Bt0","name":"不太灵","type":3,"api":"csp_Bt0","quickSearch":1, "changeable":1, "filterable":1, "timeout":60, "ext":"null$$$null$$$1"},
{"key":"YingSo","name":"影搜","type":3,"api":"csp_YingSo","timeout":60, "ext":"https://gitlab.com/dk6633963/tv/-/raw/main/token.txt?ref_type=heads+4k|auto|fhd$$$1"},
{"key":"盘友圈","name":"盘友圈","type":3,"api":"csp_Panyq","timeout":60, "ext":"https://gitlab.com/dk6633963/tv/-/raw/main/token.txt?ref_type=heads+4k|auto|fhd"},
{"key":"88Pan","name":"88网盘","type":3,"api":"csp_EightEight","timeout":30, "ext":"https://gitlab.com/dk6633963/tv/-/raw/main/token.txt?ref_type=heads+4k|auto|fhd$$$https://662688.xyz"},
{"key":"PikaSo","name":"皮卡搜","type":3,"api":"csp_PikaSo","quickSearch":1, "changeable":1, "filterable":1, "timeout":30, "ext":"https://gitlab.com/dk6633963/tv/-/raw/main/token.txt?ref_type=heads+4k|auto|fhd$$$https://www.pikaso.top/$$$null"},
{"key":"csp_HunHePan","name":"混合盘","type":3,"api":"csp_HunHePan","searchable":1,"quickSearch":1, "changeable":1, "filterable":0, "timeout":60, "ext":"https://gitlab.com/dk6633963/tv/-/raw/main/token.txt?ref_type=heads+4k|auto|fhd$$$null$$$1"},
{"key":"秒搜","name":"秒搜","type":3,"api":"csp_MiaoSou","timeout":30, "ext":"https://gitlab.com/dk6633963/tv/-/raw/main/token.txt?ref_type=heads+4k|auto|fhd"},
{"key":"Libvio","name":"LIBVIO","type":3,"api":"csp_Libvio","quickSearch":1, "changeable":1, "filterable":1, "timeout":30, "ext":"https://gitlab.com/dk6633963/tv/-/raw/main/token.txt?ref_type=heads+4k|auto|fhd$$$https://www.libvio.fun$$$null"},
{"key":"DaPanSo","name":"大盘搜","type":3,"api":"csp_DaPanSo","quickSearch":1, "changeable":1, "filterable":1, "timeout":30, "ext":"https://gitlab.com/dk6633963/tv/-/raw/main/token.txt?ref_type=heads+4k|auto|fhd$$$https://dapanso.com$$$null"},
{"key":"Qianfan","name":"千帆","type":3,"api":"csp_Qianfan","quickSearch":1, "changeable":1, "filterable":1, "timeout":30, "ext":"https://gitlab.com/dk6633963/tv/-/raw/main/token.txt?ref_type=heads+4k|auto|fhd$$$https://pan.qianfan.app$$$null$$$QianFanID="},
{"key":"YunSo","name":"小云","type":3,"api":"csp_YunSo","quickSearch":1, "changeable":1, "filterable":1, "timeout":30, "ext":"https://gitlab.com/dk6633963/tv/-/raw/main/token.txt?ref_type=heads+4k|auto|fhd"},
{"key":"YunPanOne","name":"云盘","type":3,"api":"csp_YunPanOne","quickSearch":1, "changeable":1, "filterable":1, "timeout":30, "ext":"https://gitlab.com/dk6633963/tv/-/raw/main/token.txt?ref_type=heads+4k|auto|fhd"},
{"key":"Gitcafe", "name": "纸条", "type": 3, "api": "csp_Gitcafe", "searchable": 1, "quickSearch": 1, "filterable": 0, "ext":"https://gitlab.com/dk6633963/tv/-/raw/main/token.txt?ref_type=heads+4k|auto|fhd" , "timeout":30},
{"key":"夸搜","name":"夸搜","type":3,"api":"csp_PanSearch","searchable":1,"quickSearch":1,"changeable":0,"ext": {"pan":"quark","quarkCookie":"tvfan/cookie.txt","from":"4k|auto|fhd"}},
{"key": "多多弹幕","name": "多多4K弹幕", "type": 3, "api": "csp_Wobg", "jar": "http://我不是.摸鱼儿.top/by/jar/danmu.php", "quickSearch": 1, "changeable": 1, "filterable": 1,"ext": {"token": "http://127.0.0.1:9978/file/TVBox/token.txt","cookie": "http://127.0.0.1:9978/file/TVBox/quark.txt", "site": "https://tv.yydsys.top/", "danmu": true }, "timeout": 25 },


{"key":"北川","name":"北川4K","type":3,"api":"csp_XBPQ","searchable":1,"quickSearch":1,"filterable":1,"ext":{"请求头":"手机#Referer$http://bczhuiju.com/","主页url":"http://bczhuiju.com","副标题":"<div class=\"module-item-note\">&&</div>","线路数组":"data-dropdown-value=&&</div>[不包含:LZ在线#备用线路]","线路标题":"<span>&&</span>","嗅探词":".m3u8#aliyundrive.net#auth_key=#mp4","播放数组":"<div class=\"module-play-list-content&&</div>","影片类型":"<div class=\"module-info-tag\">&&立即播放","导演":"导演：</span>&&</div>","主演":"主演：</span>&&</div>","简介":"style=\"line-height: 20px;\"&&</p>","播放列表":"<a&&</a>","播放标题":"<span>&&</span>","播放链接":"href=\"&&\"","分类":"电影$1#电视剧$2#综艺$3#动漫$4","分类url":"http://bczhuiju.com/vodshow/{cateId}-{area}-{by}-{class}-{lang}-{letter}---{catePg}---{year}/;;mu0"}},
{"key": "csp_New6v","name": "新4K","jar":"https://qu.ax/qokd.jpg","type": 3,"api": "csp_New6v","searchable": 1,"style":{ "type":"rect", "ratio":1.33 },"quickSearch": 1,"filterable": 1,"ext":"https://www.66ss.org"},
{"key": "小猫","name": "小猫","type": 1,"api": "http://zy.xiaomaomi.cc/api.php/provide/vod/at/json/","searchable": 1,"quickSearch": 1,"filterable": 1,"categories": ["国产剧","欧美剧","韩剧","悬疑片","喜剧片","动作片","爱情片","科幻片","恐怖片","剧情片","战争片","犯罪片","记录片"],"playUrl":"json:http://42.51.37.161:5678/json/520239app9/gf2.php?url="},
{"key":"dd004","name":"OLE","type":3,"api":"csp_XBPQe","searchable":1,"quickSearch":1,"filterable":1,"ext":"https://olevodtv.com/index.php/vod/show/area/{area}/by/{by}/id/{cateId}/page/{catePg}/year/{year}.html"},
{"key":"小二_文才","name":"文才秒秒","type":3,"api":"csp_Wexwencai","searchable":1,"quickSearch":1,"changeable":1,"jar":"./jars/wex0425.jar;md5;b2160310e1a54807295c369aa54f7196"},
{ "key": "newyt", "name": "影探4k线路","type": 3,"api": "csp_App", "jar": "./JAR/yt.jar","searchable": 1, "quickSearch": 1,"playerType": 1, "filterable": 0,
"ext": "W5oiFIJWXdNTJR3aBqvu1ZNS5mnqT/NwZ0FhzbtIBX3FMKftY7yLAcj1P+nCq+bg1f+FWyup7ptaf4O5iF+7ImPv5VZ0DQyDmE5C9KkjXJHp4YAcZPCL/NtGj8IaVFUVXi10XLhX7+d4WmbvWoSKQCb6Is6zDv4BnWDVZ/eN6Jp9fLTAC9xsGHB8l461jjb1KEzOpP1/K2Goh8bDoD9J6ox31zKI/LHGCrr+3S35AMfL50wy3vbVswlLGUFP7vO3SzdbiYgjid1jCyeuSG2TZPdIW9quiw10m802Vcrfu2vH1GXHmUs/fAIiH/P5LsPvW07TqXXYRozECNB0TU5iR75QK53snnf0H4K/xIkoG6cBoW5F0f7W6danJGi0HZIo1giervIUTITGLqTixAk8yTAqK2LU5NA1W9W4RODtuA01mDJeh6g/YT11aVYYBOKo"},
{"key": "双黄", "name": "双黄影视", "type": 3,"api": "csp_XBPQ","jar":"./jars/c.txt","ext": "./json/双黄.json" },
{"key": "电影港","name": "电影港湾","type": 3,"api": "csp_XYQHiker","playerType": "1","ext": "https://mirror.ghproxy.com/https://raw.githubusercontent.com/wff0325/jk/main/json/电影港.json","jar": "https://mirror.ghproxy.com/https://raw.githubusercontent.com/wff0325/jk/main/jar/xyq.jar"},
{"key":"苹果","name":"小苹果","type":3,"api":"csp_LiteApple","searchable":1,"quickSearch":1,"changeable":1},
{"key": "csp_热播","name": "热播之家","type": 3,"api": "csp_XBPQ","searchable": 1,"quickSearch": 1,"filterable": 1,"ext": "https://mirror.ghproxy.com/https://raw.githubusercontent.com/wff0325/jk/main/json/热播之家.json"},
{"key": "子子影视","name": "子子影视","type": 3,"api": "csp_XBPQ","searchable": 1,"quickSearch": 1,"filterable": 1,"ext": "https://mirror.ghproxy.com/https://raw.githubusercontent.com/wff0325/jk/main/json/子子.json"},
{"key":"csp_Jianpian","name":"荐片","type":3,"api":"csp_Jianpian","searchable":1,"quickSearch":1,"filterable":1,"ext":"http://api2.rinhome.com"},
{"key": "csp_蛋蛋","name": "蛋蛋剧场","type": 3,"api": "csp_XBPQ","searchable": 1,"quickSearch": 1,"filterable": 1,"ext": "https://mirror.ghproxy.com/https://raw.githubusercontent.com/wff0325/jk/main/json/蛋蛋.json"},
{"key":"csp_BaiPiao","name":"白嫖","type":3,"api":"csp_BaiPiao","playerType":2,"searchable":1,"quickSearch":1,"filterable":1,"changeable":1,"ext":"https://www.baipiaoys.com/"},
{"key":"csp_YCyz","name":"原创","type":3,"api":"csp_YCyz","searchable":1,"quickSearch":1,"filterable":1,"changeable":1},
{"key": "csp_XBPQ_lz","name": "乐竹","type": 3,"api": "csp_XBPQ","searchable": 1,"quickSearch": 1,"filterable": 1,"ext": "https://notabug.org/ygfxz/6/raw/main/XBPQ/黑乎影视.json"},
{"key": "NOAD","name": "NO","type": 3,"api": "csp_XBPQ","searchable": 1,"quickSearch": 1,"filterable": 1,"ext":"https://notabug.org/ygfxz/6/raw/main/XBPQ/NOVIP.json"},
{"key":"九九六","name":"九六","type":3,"api":"csp_XBPQ","searchable":1,"quickSearch":1,"filterable":1,"ext":"https://xn--5nqxcz3am3cb7e94xzy6aa2935d.xyz/json/96.json"},
{"key":"星星","name":"星星","type":3,"api":"csp_App","playerType":2,"ext":"https://agit.ai/abkier/PizazzGY/raw/branch/main/EXT/%E6%98%9F%E6%98%9F"},
{"key":"晴天","name":"晴天","type":3,"api":"csp_AppYsV2","searchable":1,"quickSearch":1,"filterable":1,"ext":"http://43.154.162.194/ruifenglb_api.php/v1.vod"},
{"key":"drpy_js_影探[V2]","name":"影探","type":3,"api":"https://raw.fgit.cf/gaotianliuyun/gao/master/lib/drpy2.min.js","ext":"https://xn--5nqxcz3am3cb7e94xzy6aa2935d.xyz/yt.js"},
{"key":"348","name":"三司","api":"csp_XBPQ","type":3,"filterable":1,"playerType":2,"quickSearch":1,"searchable":1,"ext":"https://agit.ai/abkier/tvbox-jihu/raw/branch/main/JS/348影视.js","jar":"https://agit.ai/abkier/tvbox-jihu/raw/branch/mainhttps://notabug.org/PG/S/raw/master/jar/xm.jar"},
{"key":"HLTV","name": "华乐","type": 3,"api": "csp_XBPQ","ext": {"图片":"data-src=\"&&\"","线路标题":"</i>&nbsp;&&</a>","\u526f\u6807\u9898":"\u516c\u5b50\u4e13\u5c5e+module-item-text\">&&</div>","分类url":"https://huale.tv/vodshow/{cateId}/area/{area}/by/{by}/class/{class}/lang/{lang}/page/{catePg}/year/{year}.html","分类":"电影$1#剧集$2#动漫$4#综艺$3#TV直播$6"}},
{"key":"老王","name":"老王","type":3,"api":"csp_XBPQ","searchable":1,"quickSearch":1,"filterable":1,"ext":{"\u526f\u6807\u9898":"\u516c\u5b50\u4e13\u5c5e+module-item-text\">&&</div>","分类url":"https://laowang.lol/vodshow/{cateId}-{area}-{by}-{class}-{lang}----{catePg}---{year}.html","分类":"电影$movie#电视剧$tv#综艺$tvshow#动漫$animation"}},
{"key":"csp_觅知","name":"觅知","type":3,"api":"csp_XBPQ","searchable":1,"quickSearch":1,"filterable":1,"ext":{"\u526f\u6807\u9898":"\u516c\u5b50\u4e13\u5c5e+module-item-text\">&&</div>","简介":"<p>&&</p>","影片状态":"集数：&&</div>","影片类型":"module-info-tag\">&&立即播放","线路数组":"data-dropdown-value=&&</div>","线路标题":"<span>&&</small>[替换:资源>>空#</span><small>>>共]+集","分类url":"http://120.46.69.145/index.php/vod/show/area/{area}/by/{by}/class/{class}/id/{cateId}/lang/{lang}/page/{catePg}year/{year}.html;;;ak","分类":"电影$1#电视剧$2#综艺$3#动漫$4"}},
{ "key":"看片狂人","name":"狂人","type":3,"api":"csp_XBPQ","searchable":1,"quickSearch":1,"filterable":1,"ext":{"免嗅":"1","\u526f\u6807\u9898":"\u516c\u5b50\u4e13\u5c5e+module-item-text\">&&</span>","简介":"以下是剧情简介：&&</div>","线路数组":"class=\"fed-drop-btns fed-padding&&</li>","\u7ebf\u8def\u6807\u9898":"\u516c\u5b50\u4e13\u5c5e+>&&</a>","搜索url":"https://www.kpkuang.fun/vodsearch/-------------.html?wd={wd}","分类url":"https://www.kpkuang.fun/vodshow/{cateId}-{area}-------{catePg}--{class}-{year}--.html[https://www.kpkuang.fun/vodtype/{cateId}/]","分类":"电影$1#连续剧$2#综艺$3#动漫$4"}},
{"key":"sc影视","name":"盛城","type":3,"api":"csp_XBPQ","searchable":1,"quickSearch":1,"filterable":1,"ext":"https://xn--5nqxcz3am3cb7e94xzy6aa2935d.xyz/json/sc.json"},
{"key":"csp_星辰","name":"星辰","type":3,"api":"csp_XBPQ","searchable":1,"quickSearch":1,"filterable":1,"ext":"https://xn--5nqxcz3am3cb7e94xzy6aa2935d.xyz/json/xc.json"},
{"key":"xiguaya","name":"西瓜","type":3,"api":"csp_XBPQ","searchable":1,"quickSearch":1,"filterable":1,"ext":{"直接播放":"1","\u526f\u6807\u9898":"\u516c\u5b50\u4e13\u5c5e+module-item-text\">&&</div>",
"线路数组":"span id=\"listab&&/span>",
"\u7ebf\u8def\u6807\u9898":"\u516c\u5b50\u4e13\u5c5e+>&&<","播放数组":"ulNumList clearfix list_1&&</ul>","分类url":"https://www.xiguayya.com/t/{cateId}/area/{area}/class/{class}/page/{catePg}/year/{year}.html",
"分类":"本西瓜影视只有电影分类可用，切不支持搜索$dianying"}},
{"key": "天天","name": "天天","type": 3,"api": "csp_TTian","playerType": 1,"ext": "http://op.ysdqjs.cn","jar":"http://cdn.qiaoji8.com/fix12210.jar;md5;a5c29d1840207b137a855e23526d6e32"},
{"key": "萌米","name":"萌米","type": 3,"searchable": 1,"quickSearch": 1,"api": "csp_Appto","jar":"https://notabug.org/kite/feng/raw/master/jar/fm.jar","playerType": 2,"ext": {"key":"QBccRNTdEscBYykPWRbKD7YREjN6AJYJ","ic": "","token": "","url": "http://app.mervod.com:9527","configurl": "/addons/apptov4/app.php/v1/config/get?p=android","api": "/addons/apptov4/app.php/v1/"}},
{"key":"csp_Czsapp","name":"厂长","type":3,"api":"csp_Czsapp","searchable":1,"quickSearch":1,"filterable":0,"ext":"https://www.czzy55.com/"},
{"key":"csp_YQKan","name":"一起看","type":3,"api":"csp_YQKan","searchable":1,"quickSearch":1,"filterable":1},
{"key":"csp_NanGua","name":"南瓜","type":3,"api":"csp_NanGua","searchable":1,"quickSearch":1,"filterable":1,"changeable":1},
{"key":"酷看","name":"酷看","type":3,"api":"csp_Kkys","timeout":15,"searchable":1,"quickSearch":1,"changeable":1},
{"key":"率率","name":"率率","type":3,"api":"csp_AppLd","playerType":1,"searchable":1,"quickSearch":1,"filterable":1,"changeable":1,"ext":"FbjSZ1FapovNr0QF4QvEpcoxKYZaFIdGVjVHqOzmh0sHApOErDLDkEnd/fT0RWOxfniO12FgzTJjcg0PGaZSYgk9BKPOkG6SZz0wlkFM9O11CrjANWExcUutLQ=="},
{"key":"南坊","name":"南坊","type":3,"api":"csp_Appto","searchable":1,"quickSearch":1,"filterable":1,"changeable":1,"ext":"FbjDcUxPqpfNr0QF4QvE6sExbdFaCsJGU3QP9+aykEFcCJTRtWyLyATI/Kr0RWOrdmmE82op1Sp3CSI5WoN6fFdLHN+LxA+CamUTj3pr0P4lAumpPCpzMgL5ZXIuytPprjLXKt5kbYcwtkFA9gT8BgdcY6mr40MUeodBOmAdLR2v8uYbpugEDOo5fQ=="},
{"key":"萌米","name":"萌米","type":3,"api":"csp_AppMao","searchable":1,"quickSearch":1,"filterable":1,"changeable":0,"ext":"FbjDcUxPqpfNr0QF4QvEpcoxMMdAA5wQTClJt+Hxgw4VXJLfrTSRjQjA6r70U2ONX3iG4lQWk1cgXQMSUZpbUzIYJ6iQs3+gcUVDp1lz6rcrGqDtCW4hfAf9JSR025m0+TGWMsZkVg=="},
{"key":"星奇","name":"星奇","type":3,"api":"csp_AppMao","playerType":2,"searchable":1,"quickSearch":1,"filterable":1,"changeable":1,"ext":"FbjDcUxPqpfNr0QF4QvE6sExbd4UXJxJXzdL462ywU1XScGa5G6Hj0/c+Ou1GW6rdX6N2XIhnD46QzIsRoZ8bk4fG4OYi0iCaWwRj2ddkacwFqHtLjQhalHqIy0+kpiTv2eOfJYxTshgrxcJ+g3lEHx7ZLC9kB1TCfZUSHwqHB3tt6V/1OhRENIOZNRFfXVBEFd7jQg+J06kjCAF7z1Bt8hRvMjC2VcbQXsEz8MCZDgu06C9/wirWcTa/wWJsfT+Z7fXaDs+dIWMYiwf6td5CWTx6LfL6eTuiMhs2KU5Byw9F+4Y/AHBg4r+LEe+Hm4EM2d8X3ca5zHSj+kjmpXOiGDo4TalFqgTq67eggmthCbV2d131SKc03V+5gruudQQk/Tb9e4lg6SQhA9/5kWOOM/LRmkqIxSt6d0wpu7yKKh65enwKbgasc93/HnGr6W4LuZjf6eYnS2GgRzWRE0fT5lYNmxnWeRnYuLhoZbDqslAfJzg"},
{"key":"csp_MYYS","name":"忍者","type":3,"api":"csp_MYYS","searchable":1,"quickSearch":1,"filterable":0,"ext":"http://rzys.xyz"},
{"key":"csp_Jianpian","name":"荐片","type":3,"api":"csp_Jianpian","searchable":1,"quickSearch":1,"filterable":1,"ext":"http://api2.rinhome.com"},
{"key":"csp_DiDuan","name":"低端","type":3,"api":"csp_Ddrk","searchable":1,"quickSearch":1,"filterable":0},
{"key":"csp_Auete","name":"奥特","type":3,"api":"csp_Auete","searchable":1,"quickSearch":1,"filterable":1,"ext":"https://auete.pro/"},
{"key":"csp_MYYS","name":"忍者","type":3,"api":"csp_MYYS","searchable":1,"quickSearch":1,"filterable":0,"ext":"http://rzys.xyz"},
{"key":"csp_MLYS","name":"毛驴","type":3,"api":"csp_MLYS","searchable":1,"quickSearch":1,"filterable":0,"changeable":1,"ext":"https://www.maolvys.com/"},
{"key":"csp_Xinsj","name":"新视觉","type":3,"api":"csp_Xinsj","searchable":1,"quickSearch":1,"filterable":1,"ext":"https://www.hdmyy.com/"},
{"key":"csp_Bttwoo","name":"比特","type":3,"api":"csp_Bttwoo","searchable":1,"quickSearch":1,"filterable":1},
{"key":"csp_Lib","name":"LibVio","type":3,"api":"csp_Libvio","searchable":1,"quickSearch":1,"filterable":1,"ext":"https://www.libvio.la/"},
{"key":"csp_Kuaikan","name":"快看","type":3,"api":"csp_Kuaikan","searchable":1,"quickSearch":1,"filterable":1},
{"key":"csp_Kunyu77","name":"酷云七七","type":3,"api":"csp_Kunyu77","searchable":1,"quickSearch":1,"filterable":1},
{"key":"360","name":"360","type":3,"api":"csp_SP33","searchable":1,"quickSearch":1,"filterable":1,"changeable":1},
{"key":"csp_SixV","name":"新6V","type":3,"api":"csp_SixV","searchable":1,"quickSearch":1,"filterable":0,"ext":"http://www.xb6v.com/"},
{"key":"饭老_巴士","name":"动漫秒播","type":3,"api":"csp_Dm84","searchable":1,"quickSearch":1,"changeable":1,"jar":"./jars/fan0422.jar;md5;4af14dca6964a737a88b982cb8b20055","timeout":15},
{"key":"csp_Anime1","name":"动漫","type":3,"api":"csp_Anime1","searchable":1,"quickSearch":1,"filterable":1},
{"key":"csp_Dm84","name":"动漫巴士","type":3,"api":"csp_Dm84","searchable":1,"quickSearch":1,"filterable":1},
{"key":"Ying","name":"樱花动漫","type":3,"api":"csp_Ying","searchable":1,"quickSearch":1,"filterable":1},
{"key":"csp_Ysj","name":"异世界","type":3,"api":"csp_Ysj","searchable":1,"quickSearch":1,"filterable":1},
{"key":"csp_Duanju","name":"短剧","type":3,"api":"csp_Duanju","searchable":1,"quickSearch":1,"filterable":1,"changeable":1,"ext":"https://duanju.one"},
{"key":"csp_Yj1211","name":"在线直播","type":3,"api":"csp_Yj1211","searchable":1,"quickSearch":1,"filterable":1},
{"key":"csp_Kanqiu","name":"88看球","type":3,"api":"csp_Kanqiu","searchable":1,"quickSearch":1,"filterable":1,"changeable":0},
{"key":"Aid","name":"急救教学","type":3,"api":"csp_FirstAid","searchable":0,"quickSearch":0,"filterable":0,"changeable":0},

{"key":"csp_Nbys","name":"泥巴(墙外)","type":3,"api":"csp_NiNi","searchable":1,"quickSearch":1,"filterable":1},
{"key":"csp_trj","name":"唐人街(墙外)","type":3,"api":"csp_Tangrenjie","searchable":1,"quickSearch":1,"filterable":1},

{"key":"农民","name":"农民","type":3,"api":"csp_XBPQ","searchable":1,"quickSearch":1,"filterable":1,"ext":"https://agit.ai/Yoursmile7/TVBox/raw/branch/master/sub/农民影视.json"},
{"key":"骚火","name":"骚火","type":3,"api":"csp_XBPQ","playerType":"2","searchable":1,"quickSearch":1,"filterable":1,"ext":{"嗅探词":".m3u8#.mp4#.m3u8?#freeok.mp4","分类url":"https://shdy2.com/list/{cateId}-{catePg}.html;;vr1au0","分类":"电影$1#电视剧$2#韩剧$22#美剧$23#动漫$4","数组二次截取":"class=\"v_list\">&&</ul>","数组":"\"v_img\"&&/div>","标题":"title=\"&&\"","副标题":"v_note\"&&</div","跳转播放链接":"<iframe*src=\"&&\"","二次跳转播放链接":"https://hhjx.hhplayer.com/api.php;post;url=+var url*\"&&\"+&t=+var t*\"&&\"+&key=+var key*\"&&\"+&act=0+&play=1","三次跳转播放链接":"\"url\"*\"&&\""}},
{"key":"奇优","name":"️奇优","type":3,"api":"csp_XBPQ","searchable":1,"quickSearch":1,"filterable":1,"ext":"https://agit.ai/Yoursmile7/TVBox/raw/branch/master/sub/奇优.json"},
{"key":"云播","name":"云播","type":3,"api":"csp_XBPQ","searchable":1,"quickSearch":1,"filterable":1,"changeable":1,"ext":{"影片类型":"分类：&&主演","导演":"导演：</span>&&</p>","主演":"主演：</span>&&</p>","简介":"class=\"sketch content\">&&</span>","数组":"myui-vodlist__thumb&&</a>","标题":"title=\"&&\"","副标题":"pic-tag pic-tag-top\">&&</span>","图片":"data-original=\"&&\"","链接":"href=\"&&\"","搜索模式":"1","搜索url":"http://www.hktvyun.com/index.php/ajax/suggest?mid=1&wd={wd}&limit=500","搜索二次截取":"\"list\":[&&]","搜索数组":"{&&}","搜索标题":"\"name\":\"&&\"","搜索图片":"\"pic\":\"&&\"","搜索链接":"http://www.hktvyun.com/vod/detail/id/+\"id\":&&,+html","嗅探词":".m3u8#mp4","线路数组":"</a><h3&&/h3>","线路标题":"title\">&&<","播放数组":"<ul class=\"myui-content__list scrollbar&&</ul>","播放标题":">&&<","播放列表":"<a&&/a>","分类url":"http://www.hktvyun.com/vod/show/area/{area}/by/{by}/class/{class}/id/{cateId}/lang/{lang}/page/{catePg}/year/{year}.html;;a","分类":"电影$1#电视剧$2#综艺$3#动漫$4"}},
{"key":"drpy_js_虎牙直播","name":"虎牙直播","type":3,"api":"https://agit.ai/Yoursmile7/TVBox/raw/branch/master/js/lib/drpy2.min.js","searchable":0,"quickSearch":0,"filterable":0,"ext":"https://agit.ai/Yoursmile7/TVBox/raw/branch/master/js/虎牙直播.js"},
{"key":"drpy_js_斗鱼直播","name":"斗鱼直播","type":3,"api":"https://agit.ai/Yoursmile7/TVBox/raw/branch/master/js/lib/drpy2.min.js","searchable":0,"quickSearch":0,"filterable":0,"ext":"https://agit.ai/Yoursmile7/TVBox/raw/branch/master/js/斗鱼直播.js"},
{"key":"drpy_js_有声小说吧","name":"有声小说吧","type":3,"api":"https://agit.ai/Yoursmile7/TVBox/raw/branch/master/js/lib/drpy2.min.js","playerType":"2","searchable":0,"quickSearch":0,"filterable":0,"ext":"https://agit.ai/Yoursmile7/TVBox/raw/branch/master/js/有声小说吧.js"},
{"key":"drpy_js_JRKAN直播","name":"JRKAN直播","type":3,"api":"https://agit.ai/Yoursmile7/TVBox/raw/branch/master/js/lib/drpy.min.js","searchable":0,"quickSearch":0,"filterable":0,"ext":"https://agit.ai/Yoursmile7/TVBox/raw/branch/master/js/JRKAN直播.js"},
{"key":"短视频","name":"☘短视频","type":3,"api":"csp_XBPQ","searchable":0,"quickSearch":0,"filterable":1,"ext":{"主页url":"http://www.sharenice.net","直接播放":"1","嗅探词":".m3u8#m3u8?#.mp4#mp4?#ixigua#.czspp#.flv#.mp3#.m4a#?item/video#is_play_url=1#play/?#qianpailive","分类":"抖音&快手&微视&火山&场库&美拍&秒拍&全民&梨&好兔&开眼&美女&搞笑&社会&音乐&娱乐&影视&正能量&生活&动漫&萌系&美食&体育&游戏&明星&旅游&时尚","分类值":"douyin&kuaishou&weishi&huoshan&changku&meipai&miaopai&quanmin&lishipin&haotu&kaiyan&t-576O5aWz&t-5pCe56yR&t-56S+5Lya&t-6Z+z5LmQ&t-5aix5LmQ&t-5b2x6KeG&t-5q2j6IO96YeP&t-55Sf5rS7&t-5Yqo5ryr&t-6JCM57O7&t-576O6aOf&t-5L2T6IKy&t-5ri45oiP&t-5piO5pif&t-5peF5ri4&t-5pe25bCa","分类url":"http://www.sharenice.net/{cateId}?page={catePg}","二次截取":"class=\"item-box\">&&</ul>","数组":"<li&&</li>","图片":"data-original=\"&&\"","标题":"title=\"&&\"","链接":"href=\"&&\""}},
{"key":"酷奇MV","name":"酷奇MV","type":3,"api":"csp_XBPQ","searchable":0,"quickSearch":0,"filterable":1,"ext":{"主页url":"https://www.kuqimv.com","直接播放":"1","短视频":"1","分类":"华语高清$1#日韩精选$2#欧美MV$3#高清现场$4#影视MV$5#夜店视频$6#车模视频$7#热舞视频$8#美女写真$9#美女打碟$10","分类url":"https://www.kuqimv.com/play/{cateId}_{catePg}.html;;z","数组":"<li>&&</li>","标题":"title=\"&&\"","副标题":"target=\"play\">&&<","搜索模式":"1","搜索url":"https://www.kuqimv.com/search.php?key={wd}"}},
{"key":"csp_Bili","name":"🅱️哔哩哔哩","type":3,"api":"csp_Bili","searchable":0,"quickSearch":0,"filterable":1,"ext":"https://agit.ai/Yoursmile7/TVBox/raw/branch/master/sub/Bili.json"},
{"key":"相声小品","name":"🅱️相声小品","type":3,"api":"csp_Bili","searchable":0,"quickSearch":0,"filterable":1,"ext":"https://agit.ai/Yoursmile7/TVBox/raw/branch/master/sub/Blixs.json"},
{"key":"戏曲","name":"🅱️戏曲","type":3,"api":"csp_Bili","searchable":0,"quickSearch":0,"filterable":1,"ext":"https://agit.ai/Yoursmile7/TVBox/raw/branch/master/sub/Blixq.json"},
{"key":"少儿","name":"🅱️少儿","type":3,"api":"csp_Bili","searchable":0,"quickSearch":0,"filterable":1,"ext":"https://agit.ai/Yoursmile7/TVBox/raw/branch/master/sub/少儿教育.json"},
{"key":"小学","name":"🅱️小学","type":3,"api":"csp_Bili","searchable":0,"quickSearch":0,"filterable":1,"ext":"https://agit.ai/Yoursmile7/TVBox/raw/branch/master/sub/小学课堂.json"},
{"key":"初中","name":"🅱️初中","type":3,"api":"csp_Bili","searchable":0,"quickSearch":0,"filterable":1,"ext":"https://agit.ai/Yoursmile7/TVBox/raw/branch/master/sub/初中课堂.json"},
{"key":"高中","name":"🅱️高中","type":3,"api":"csp_Bili","searchable":0,"quickSearch":0,"filterable":1,"ext":"https://agit.ai/Yoursmile7/TVBox/raw/branch/master/sub/高中课堂.json"}
],
"parses": [{
		"name": "Web聚合",
		"type": 3,
		"url": "Web"
	}, {
		"name": "Json聚合",
		"type": 3,
		"url": "Demo"
	}, {
		"name": "777",
		"type": 0,
		"url": "https://jx.777jiexi.com/player/?url=",
		"ext": {
			"flag": ["qq", "腾讯", "qiyi", "爱奇艺", "奇艺", "youku", "优酷", "mgtv", "芒果", "letv", "乐视", "pptv", "PPTV", "sohu", "bilibili", "哔哩哔哩", "哔哩"],"header":{"User-Agent":"okhttp/4.1.0"}
		}   
	}, {
		"name": "jsonplayer",
		"type": 0,
		"url": "https://jx.jsonplayer.com/player/?url=",
		"ext": {
			"flag": ["qq", "腾讯", "qiyi", "爱奇艺", "奇艺", "youku", "优酷", "mgtv", "芒果", "letv", "乐视", "pptv", "PPTV", "sohu", "bilibili", "哔哩哔哩", "哔哩"],"header":{"User-Agent":"okhttp/4.1.0"}
		}   
	}, {
		"name": "xmflv",
		"type": 0,
		"url": "https://jx.xmflv.com/?url=",
		"ext": {
			"flag": ["qq", "腾讯", "qiyi", "爱奇艺", "奇艺", "youku", "优酷", "mgtv", "芒果", "letv", "乐视", "pptv", "PPTV", "sohu", "bilibili", "哔哩哔哩", "哔哩"]
		}  
	}, {
		"name": "云播",
		"type": 0,
		"url": "https://vip.lianfaka.com/vip/?url=",
		"ext": {
			"flag": ["qq", "腾讯", "qiyi", "爱奇艺", "奇艺", "youku", "优酷", "mgtv", "芒果", "letv", "乐视", "pptv", "PPTV", "sohu", "bilibili", "哔哩哔哩", "哔哩"],"header":{"User-Agent":"okhttp/4.1.0"}
		}   
	}, {
		"name": "剖云",
		"type": 0,
		"url": "https://www.pouyun.com/?url=",
		"ext": {
			"flag": ["qq", "腾讯", "qiyi", "爱奇艺", "奇艺", "youku", "优酷", "mgtv", "芒果", "letv", "乐视", "pptv", "PPTV", "sohu", "bilibili", "哔哩哔哩", "哔哩"]
		}  
	}],
   "lives":[{"name":"live","type":0,"url":"https://raw.githubusercontent.com/dk393722/tv/main/live2.txt","playerType":1,"ua":"okhttp/3.15","epg":"http://diyp.112114.xyz/?ch={name}&date={date}","logo":"https://epg.112114.xyz/logo/{name}.png"}],
   "doh":[{"name":"Google","url":"https://dns.google/dns-query","ips":["8.8.4.4","8.8.8.8"]},{"name":"Cloudflare","url":"https://cloudflare-dns.com/dns-query","ips":["1.1.1.1","1.0.0.1","2606:4700:4700::1111","2606:4700:4700::1001"]},{"name":"AdGuard","url":"https://dns.adguard.com/dns-query","ips":["94.140.14.140","94.140.14.141"]},{"name":"DNSWatch","url":"https://resolver2.dns.watch/dns-query","ips":["84.200.69.80","84.200.70.40"]},{"name":"Quad9","url":"https://dns.quad9.net/dns-quer","ips":["9.9.9.9","149.112.112.112"]}],
   "rules":[{"name":"wp","hosts":["vip.123pan.cn","rescdn.wuxivlog.cn"],"regex":["#EXT-X-DISCONTINUITY\\r*\\n*#EXTINF:20.840000,[\\s\\S]*?#EXT-X-DISCONTINUITY","#EXT-X-DISCONTINUITY\\r*\\n*#EXTINF:10.120000,[\\s\\S]*?#EXT-X-DISCONTINUITY","#EXTINF.*?\\s+.*?1o.*?\\.ts\\s+"]},{"name":"索尼","hosts":["suonizy"],"regex":["#EXT-X-DISCONTINUITY\\r*\\n*#EXTINF:15.1666,[\\s\\S]*?#EXT-X-DISCONTINUITY","#EXT-X-DISCONTINUITY\\r*\\n*#EXTINF:15.2666,[\\s\\S]*?#EXT-X-DISCONTINUITY","#EXTINF.*?\\s+.*?1o.*?\\.ts\\s+"]},{"name":"海外看","hosts":["haiwaikan"],"regex":["8.1748","10.0099","10.3333"]},{"name":"星星","hosts":["aws.ulivetv.net"],"regex":["#EXT-X-DISCONTINUITY\\r*\\n*#EXTINF:8,[\\s\\S]*?#EXT-X-DISCONTINUITY","#EXT-X-DISCONTINUITY\\r*\\n*#EXTINF:9,[\\s\\S]*?#EXT-X-DISCONTINUITY"]},{"name":"农民","hosts":["toutiaovod.com"],"regex":["video/tos/cn"]},{"name":"hwk","hosts":["haiwaikan"],"regex":["10.0099","10.3333","16.0599","8.1748","10.85"]},{"name":"yqk","hosts":["yqk88"],"regex":["18.4","15.1666"]},{"name":"sn","hosts":["suonizy"],"regex":["15.1666","15.2666"]},{"name":"xx","hosts":["aws.ulivetv.net"],"regex":["#EXT-X-DISCONTINUITY\\r*\\n*#EXTINF:8,[\\s\\S]*?#EXT-X-DISCONTINUITY"]},{"name":"量子","hosts":["vip.lz","v.cdnlz","hd.lz"],"regex":["#EXT-X-DISCONTINUITY\\r*\\n*#EXTINF:6.433333,[\\s\\S]*?#EXT-X-DISCONTINUITY","#EXT-X-DISCONTINUITY\\r*\\n*#EXTINF:18.5333,[\\s\\S]*?#EXT-X-DISCONTINUITY","#EXTINF.*?\\s+.*?1o.*?\\.ts\\s+"]},{"name":"非凡","hosts":["vip.ffzy","hd.ffzy"],"regex":["#EXT-X-DISCONTINUITY\\r*\\n*#EXTINF:6.666667,[\\s\\S]*?#EXT-X-DISCONTINUITY","#EXT-X-DISCONTINUITY\\r*\\n*#EXTINF:25.0666,[\\s\\S]*?#EXT-X-DISCONTINUITY","#EXTINF.*?\\s+.*?1o.*?\\.ts\\s+"]},{"name":"暴风","hosts":["bfzy","s5.bfzycdn"],"regex":["#EXT-X-DISCONTINUITY\\r*\\n*#EXTINF:3,[\\s\\S]*?#EXT-X-DISCONTINUITY","#EXTINF.*?\\s+.*?1o.*?\\.ts\\s+"]},{"name":"火山","hosts":["huoshan.com"],"regex":["item_id="]},{"name":"抖音","hosts":["douyin.com"],"regex":["is_play_url="]},{"name":"cl","hosts":["magnet"],"regex":["最 新","直 播","更 新"]}],
   "flags":["youku","qq","QQ","iqiyi","qiyi","letv","sohu","tudou","pptv","PPTV","mgtv","ltnb","rx","SLYS4k","BYGA","BYGB","luanzi","dxzy","QEYSS","aliyun","AliS","122","chuangying","CL4K","xfyun","wuduzy","wasu","bilibili","renrenmi","xmm","xigua","m1905","funshion","优酷","芒果","腾讯","爱奇艺","奇艺","哔哩哔哩","哔哩","西瓜视频","腾讯视频","奇艺视频","优酷视频","芒果视频","乐视视频","FY","fy","FeiYun","feiyun","飞云"],
   "ijk":[{"group":"软解码","options":[{"category":4,"name":"opensles","value":"0"},{"category":4,"name":"overlay-format","value":"842225234"},{"category":4,"name":"framedrop","value":"1"},{"category":4,"name":"soundtouch","value":"1"},{"category":4,"name":"start-on-prepared","value":"1"},{"category":1,"name":"http-detect-rangeupport","value":"0"},{"category":1,"name":"fflags","value":"fastseek"},{"category":2,"name":"skip_loop_filter","value":"48"},{"category":4,"name":"reconnect","value":"1"},{"category":4,"name":"enable-accurateeek","value":"0"},{"category":4,"name":"mediacodec","value":"0"},{"category":4,"name":"mediacodec-auto-rotate","value":"0"},{"category":4,"name":"mediacodec-handle-resolution-change","value":"0"},{"category":4,"name":"mediacodec-hevc","value":"0"},{"category":1,"name":"dns_cache_timeout","value":"600000000"}]},{"group":"硬解码","options":[{"category":4,"name":"opensles","value":"0"},{"category":4,"name":"overlay-format","value":"842225234"},{"category":4,"name":"framedrop","value":"1"},{"category":4,"name":"soundtouch","value":"1"},{"category":4,"name":"start-on-prepared","value":"1"},{"category":1,"name":"http-detect-rangeupport","value":"0"},{"category":1,"name":"fflags","value":"fastseek"},{"category":2,"name":"skip_loop_filter","value":"48"},{"category":4,"name":"reconnect","value":"1"},{"category":4,"name":"enable-accurateeek","value":"0"},{"category":4,"name":"mediacodec","value":"1"},{"category":4,"name":"mediacodec-auto-rotate","value":"1"},{"category":4,"name":"mediacodec-handle-resolution-change","value":"1"},{"category":4,"name":"mediacodec-hevc","value":"1"},{"category":1,"name":"dns_cache_timeout","value":"600000000"}]}],
   "ads":["iqiyi.hbuioo.com","vip.ffzyad.com","wan.51img1.com","https://lf1-cdn-tos.bytegoofy.com/obj/tos-cn-i-dy/455ccf9e8ae744378118e4bd289288dd","mimg.0c1q0l.cn","www.googletagmanager.com","www.google-analytics.com","mc.usihnbcq.cn","mg.g1mm3d.cn","mscs.svaeuzh.cn","cnzz.hhttm.top","tp.vinuxhome.com","cnzz.mmstat.com","www.baihuillq.com","s23.cnzz.com","z3.cnzz.com","c.cnzz.com","stj.v1vo.top","z12.cnzz.com","img.mosflower.cn","tips.gamevvip.com","ehwe.yhdtns.com","xdn.cqqc3.com","www.jixunkyy.cn","sp.chemacid.cn","hm.baidu.com","s9.cnzz.com","z6.cnzz.com","um.cavuc.com","mav.mavuz.com","wofwk.aoidf3.com","z5.cnzz.com","xc.hubeijieshikj.cn","tj.tianwenhu.com","xg.gars57.cn","k.jinxiuzhilv.com","cdn.bootcss.com","ppl.xunzhuo123.com","xomk.jiangjunmh.top","img.xunzhuo123.com","z1.cnzz.com","s13.cnzz.com","xg.huataisangao.cn","z7.cnzz.com","xg.huataisangao.cn","z2.cnzz.com","s96.cnzz.com","q11.cnzz.com","thy.dacedsfa.cn","xg.whsbpw.cn","s19.cnzz.com","z8.cnzz.com","s4.cnzz.com","f5w.as12df.top","ae01.alicdn.com","www.92424.cn","k.wudejia.com","vivovip.mmszxc.top","qiu.xixiqiu.com","cdnjs.hnfenxun.com","cms.qdwght.com"]}
